{
  "name": "ZCPRouterKit",
  "version": "0.0.1-SNAPSHOT",
  "authors": {
    "朱超鹏": "z164757979@163.com"
  },
  "license": {
    "type": "MIT",
    "file": "LICENSE"
  },
  "homepage": "https://gitlab.com/Malygos/ZCPRouterKit",
  "source": {
    "git": "https://gitlab.com/Malygos/ZCPRouterKit.git",
    "commit": "a2ccba90cdb41e54984ac37715b85f7344556b40"
  },
  "summary": "ZCP ZCPRouterKit.",
  "description": "ZCP ZCPRouterKit. pa hao fang router",
  "platforms": {
    "ios": "9.0"
  },
  "module_name": "ZCPRouterKit",
  "frameworks": [
    "Foundation",
    "UIKit"
  ],
  "vendored_frameworks": "Framework/ZCPRouterKit.framework",
  "dependencies": {
    "ZCPCategory": [

    ],
    "Aspects": [

    ]
  }
}
